{
    "name": "APISol",
    "alias": "apisol",
    "description": "",
    "keywords": [],
    "active": 1,
    "order": 0,
    "providers": [
        "Modules\\APISol\\Providers\\APISolServiceProvider"
    ],
    "aliases": {},
    "files": [],
    "requires": []
}
